-----02-07-2017 @ 05:10:00 ------
schedule_cleanup_temp_users
-----02-07-2017 @ 07:10:44 ------
schedule_cleanup_temp_users
-----02-07-2017 @ 09:10:44 ------
schedule_cleanup_temp_users
-----02-07-2017 @ 11:10:44 ------
schedule_cleanup_temp_users
-----02-07-2017 @ 13:10:44 ------
schedule_cleanup_temp_users
-----02-07-2017 @ 15:10:44 ------
schedule_cleanup_temp_users
-----02-07-2017 @ 17:10:46 ------
schedule_cleanup_temp_users
-----02-07-2017 @ 19:10:56 ------
schedule_cleanup_temp_users
-----02-07-2017 @ 21:11:03 ------
schedule_cleanup_temp_users
-----02-08-2017 @ 04:22:56 ------
schedule_cleanup_temp_users
-----02-08-2017 @ 05:28:37 ------
schedule_cleanup_temp_users
-----02-08-2017 @ 07:31:03 ------
schedule_cleanup_temp_users
-----02-08-2017 @ 09:10:19 ------
schedule_cleanup_temp_users
-----02-08-2017 @ 11:43:41 ------
schedule_cleanup_temp_users
-----02-08-2017 @ 13:09:59 ------
schedule_cleanup_temp_users
-----02-08-2017 @ 15:09:57 ------
schedule_cleanup_temp_users
-----02-08-2017 @ 17:10:48 ------
schedule_cleanup_temp_users
-----02-08-2017 @ 19:09:54 ------
schedule_cleanup_temp_users
-----02-08-2017 @ 21:10:18 ------
schedule_cleanup_temp_users
-----02-08-2017 @ 23:09:57 ------
schedule_cleanup_temp_users
-----02-08-2017 @ 23:09:58 ------
schedule_cleanup_temp_users
-----02-09-2017 @ 18:25:26 ------
schedule_cleanup_temp_users
-----02-09-2017 @ 19:12:09 ------
schedule_cleanup_temp_users
-----02-09-2017 @ 22:26:22 ------
schedule_cleanup_temp_users
-----02-09-2017 @ 23:10:13 ------
schedule_cleanup_temp_users
-----02-10-2017 @ 01:10:14 ------
schedule_cleanup_temp_users
-----02-10-2017 @ 03:10:20 ------
schedule_cleanup_temp_users
-----02-10-2017 @ 05:10:09 ------
schedule_cleanup_temp_users
-----02-10-2017 @ 16:45:01 ------
schedule_cleanup_temp_users
-----02-10-2017 @ 17:11:00 ------
schedule_cleanup_temp_users
-----02-10-2017 @ 19:10:25 ------
schedule_cleanup_temp_users
-----02-10-2017 @ 21:10:07 ------
schedule_cleanup_temp_users
-----02-10-2017 @ 23:09:59 ------
schedule_cleanup_temp_users
-----02-11-2017 @ 01:10:45 ------
schedule_cleanup_temp_users
-----02-11-2017 @ 03:11:38 ------
schedule_cleanup_temp_users
-----02-11-2017 @ 05:10:30 ------
schedule_cleanup_temp_users
-----02-11-2017 @ 07:11:23 ------
schedule_cleanup_temp_users
-----02-11-2017 @ 09:10:17 ------
schedule_cleanup_temp_users
-----02-11-2017 @ 11:11:10 ------
schedule_cleanup_temp_users
-----02-11-2017 @ 13:10:00 ------
schedule_cleanup_temp_users
-----02-11-2017 @ 15:10:53 ------
schedule_cleanup_temp_users
-----02-11-2017 @ 17:11:46 ------
schedule_cleanup_temp_users
-----02-11-2017 @ 19:10:42 ------
schedule_cleanup_temp_users
-----02-11-2017 @ 21:31:48 ------
schedule_cleanup_temp_users
-----02-12-2017 @ 18:10:17 ------
schedule_cleanup_temp_users
-----02-12-2017 @ 19:31:30 ------
schedule_cleanup_temp_users
-----02-13-2017 @ 07:42:36 ------
schedule_cleanup_temp_users
-----02-13-2017 @ 13:16:46 ------
schedule_cleanup_temp_users
-----02-13-2017 @ 16:56:36 ------
schedule_cleanup_temp_users
-----02-13-2017 @ 21:41:48 ------
schedule_cleanup_temp_users
-----02-14-2017 @ 00:43:32 ------
schedule_cleanup_temp_users
-----02-14-2017 @ 01:10:14 ------
schedule_cleanup_temp_users
-----02-14-2017 @ 03:10:13 ------
schedule_cleanup_temp_users
-----02-14-2017 @ 05:10:13 ------
schedule_cleanup_temp_users
-----02-14-2017 @ 09:39:10 ------
schedule_cleanup_temp_users
-----02-14-2017 @ 11:09:55 ------
schedule_cleanup_temp_users
-----02-14-2017 @ 13:10:14 ------
schedule_cleanup_temp_users
-----02-14-2017 @ 16:03:13 ------
schedule_cleanup_temp_users
-----02-14-2017 @ 17:10:05 ------
schedule_cleanup_temp_users
-----02-14-2017 @ 19:10:05 ------
schedule_cleanup_temp_users
-----02-15-2017 @ 05:47:28 ------
schedule_cleanup_temp_users
-----02-15-2017 @ 07:09:56 ------
schedule_cleanup_temp_users
-----02-15-2017 @ 09:32:44 ------
schedule_cleanup_temp_users
-----02-15-2017 @ 17:45:09 ------
schedule_cleanup_temp_users
-----02-15-2017 @ 19:11:20 ------
schedule_cleanup_temp_users
-----02-15-2017 @ 21:10:12 ------
schedule_cleanup_temp_users
-----02-15-2017 @ 23:10:54 ------
schedule_cleanup_temp_users
-----02-16-2017 @ 01:10:57 ------
schedule_cleanup_temp_users
-----02-16-2017 @ 03:10:09 ------
schedule_cleanup_temp_users
-----02-16-2017 @ 05:10:50 ------
schedule_cleanup_temp_users
-----02-16-2017 @ 07:10:09 ------
schedule_cleanup_temp_users
-----02-16-2017 @ 11:07:12 ------
schedule_cleanup_temp_users
-----02-16-2017 @ 11:12:22 ------
schedule_cleanup_temp_users
-----02-16-2017 @ 13:09:58 ------
schedule_cleanup_temp_users
